{
    "pagination": {
        "page": 1,
        "limit": 10,
        "offset": 0,
        "totalItems": 8846,
        "totalPages": 885
    },
    "items": [
        {
            "name": "hello - transation",
            "module": "570772df82b5872b00ebcbcf",
            "tags": [],
            "archivedAt": null,
            "removedAt": null,
            "publishedAt": 1474980516495,
            "createdBy": "Name selfupdated Vrijmoet",
            "customerId": 1,
            "values": {
                "key": null,
                "value": "TRANSLATION_NOT_ADDED"
            },
            "pushSchedule": null,
            "externalId": null,
            "revision": 0,
            "createdAt": 1474980516487,
            "updatedAt": null,
            "deletedAt": null,
            "updatedBy": null,
            "deletedBy": null,
            "id": "57ea6aa40cf4ec003b4d8285"
        },
        {
            "name": "newitem",
            "module": "570772df82b5872b00ebcbcf",
            "tags": [
                {
                    "id": "000000000000000000000467",
                    "name": "German Germany",
                    "value": "de-DE",
                    "tagType": "000000000000000000000002"
                },
                {
                    "id": "000000000000000000000572",
                    "name": "Spanish Spain",
                    "value": "es-ES",
                    "tagType": "000000000000000000000002"
                },
                {
                    "id": "000000000000000000000485",
                    "name": "English Australia",
                    "value": "en-AU",
                    "tagType": "000000000000000000000002"
                },
                {
                    "id": "000000000000000000000675",
                    "name": "Italian Italy",
                    "value": "it-IT",
                    "tagType": "000000000000000000000002"
                }
            ],
            "archivedAt": null,
            "removedAt": 1475834427000,
            "publishedAt": 1475229648000,
            "createdBy": "Name selfupdated Vrijmoet",
            "customerId": 1,
            "values": {
                "key": null,
                "value": "TRANSLATION_NOT_ADDED"
            },
            "pushSchedule": null,
            "externalId": null,
            "revision": 0,
            "createdAt": 1474980494100,
            "updatedAt": null,
            "deletedAt": 1474980514451,
            "updatedBy": null,
            "deletedBy": "Name selfupdated Vrijmoet",
            "id": "57ea6a8e1502470022b2e3a4"
        },
        {
            "name": "7pYWbHi update",
            "module": "571f38b9bb7f372900a14cbc",
            "tags": [],
            "archivedAt": null,
            "removedAt": null,
            "publishedAt": null,
            "createdBy": "Name selfupdated mobgen",
            "customerId": 1,
            "values": {},
            "pushSchedule": null,
            "externalId": null,
            "revision": 0,
            "createdAt": 1474984496053,
            "updatedAt": 1474984496147,
            "deletedAt": 1474984496322,
            "updatedBy": "Name selfupdated mobgen",
            "deletedBy": "Name selfupdated mobgen",
            "id": "57ea7a307259b70036af59bc"
        },
        {
            "name": "eJkwD6B update",
            "module": "571f38b9bb7f372900a14cbc",
            "tags": [],
            "archivedAt": null,
            "removedAt": null,
            "publishedAt": null,
            "createdBy": "Name selfupdated mobgen",
            "customerId": 1,
            "values": {},
            "pushSchedule": null,
            "externalId": null,
            "revision": 0,
            "createdAt": 1474984480392,
            "updatedAt": 1474984480485,
            "deletedAt": 1474984480660,
            "updatedBy": "Name selfupdated mobgen",
            "deletedBy": "Name selfupdated mobgen",
            "id": "57ea7a207259b70036af59bb"
        },
        {
            "name": "5f6KPfv update",
            "module": "571f38b9bb7f372900a14cbc",
            "tags": [],
            "archivedAt": null,
            "removedAt": null,
            "publishedAt": null,
            "createdBy": "Name selfupdated mobgen",
            "customerId": 1,
            "values": {},
            "pushSchedule": null,
            "externalId": null,
            "revision": 0,
            "createdAt": 1474559678272,
            "updatedAt": 1474559678366,
            "deletedAt": 1474559678534,
            "updatedBy": "Name selfupdated mobgen",
            "deletedBy": "Name selfupdated mobgen",
            "id": "57e3febebbd5180076fc783d"
        },
        {
            "name": "WtgcBn7 update",
            "module": "571f38b9bb7f372900a14cbc",
            "tags": [],
            "archivedAt": null,
            "removedAt": null,
            "publishedAt": null,
            "createdBy": "Name selfupdated mobgen",
            "customerId": 1,
            "values": {},
            "pushSchedule": null,
            "externalId": null,
            "revision": 0,
            "createdAt": 1474447723534,
            "updatedAt": 1474447723625,
            "deletedAt": 1474447723790,
            "updatedBy": "Name selfupdated mobgen",
            "deletedBy": "Name selfupdated mobgen",
            "id": "57e2496b96a22200213be1c7"
        },
        {
            "name": "2MvC7du update",
            "module": "571f38b9bb7f372900a14cbc",
            "tags": [],
            "archivedAt": null,
            "removedAt": null,
            "publishedAt": null,
            "createdBy": "Name selfupdated mobgen",
            "customerId": 1,
            "values": {},
            "pushSchedule": null,
            "externalId": null,
            "revision": 0,
            "createdAt": 1474447414086,
            "updatedAt": 1474447414171,
            "deletedAt": 1474447414341,
            "updatedBy": "Name selfupdated mobgen",
            "deletedBy": "Name selfupdated mobgen",
            "id": "57e248365052aa0020f1b340"
        },
        {
            "name": "fN8YGnb update",
            "module": "571f38b9bb7f372900a14cbc",
            "tags": [],
            "archivedAt": null,
            "removedAt": null,
            "publishedAt": null,
            "createdBy": "Name selfupdated mobgen",
            "customerId": 1,
            "values": {},
            "pushSchedule": null,
            "externalId": null,
            "revision": 0,
            "createdAt": 1474447010888,
            "updatedAt": 1474447010982,
            "deletedAt": 1474447011157,
            "updatedBy": "Name selfupdated mobgen",
            "deletedBy": "Name selfupdated mobgen",
            "id": "57e246a25052aa0020f1b33d"
        },
        {
            "name": "dGO0Bsm update",
            "module": "571f38b9bb7f372900a14cbc",
            "tags": [],
            "archivedAt": null,
            "removedAt": null,
            "publishedAt": null,
            "createdBy": "Name selfupdated mobgen",
            "customerId": 1,
            "values": {},
            "pushSchedule": null,
            "externalId": null,
            "revision": 0,
            "createdAt": 1474386935807,
            "updatedAt": 1474386935900,
            "deletedAt": 1474386936079,
            "updatedBy": "Name selfupdated mobgen",
            "deletedBy": "Name selfupdated mobgen",
            "id": "57e15bf769c223002bb304ee"
        },
        {
            "name": "271WuB9 update",
            "module": "571f38b9bb7f372900a14cbc",
            "tags": [],
            "archivedAt": null,
            "removedAt": null,
            "publishedAt": null,
            "createdBy": "Name selfupdated mobgen",
            "customerId": 1,
            "values": {},
            "pushSchedule": null,
            "externalId": null,
            "revision": 0,
            "createdAt": 1474378813470,
            "updatedAt": 1474378813573,
            "deletedAt": 1474378813767,
            "updatedBy": "Name selfupdated mobgen",
            "deletedBy": "Name selfupdated mobgen",
            "id": "57e13c3d4b9a370026ba034d"
        }
    ]
}